{
  "$schema": "https://docs.renovatebot.com/renovate-schema.json",
  "extends": [
    "config:recommended"
  ],
  "prConcurrentLimit": 3,
  "prHourlyLimit": 100,
  "osvVulnerabilityAlerts": true,
  "dependencyDashboardOSVVulnerabilitySummary": "all",
  "vulnerabilityAlerts": {
    "labels": [
      "security"
    ]
  },
  "labels": [
    "dependencies"
  ]
}